Comparing modeling engines
…
  generation_time = 5
)
#> Backtesting ■■■■■■                            16% | ETA:  6s
#> Backtesting ■■■■■■■                           19% | ETA:  6s
#> Backtesting ■■■■■■■■■■■■■■■■                  52% | ETA:  4s
#> Backtesting ■■■■■■■■■■■■■■■■■■■■■■■■■         80% | ETA:  2s
#> Backtesting ■■■■■■■■■■■■■■■■■■■■■■■■■■■■■■■  100% | ETA:  0s
bt
#> 
#> ── Backtest results
#> 450 predictions across 31 origins
#> Engines: "mlr, piantham"
#> Horizons: 7, 14, 21 days
#> 
#> # A tibble: 450 × 9
#>    origin_date target_date horizon engine   lineage predicted    lower   upper
#>  * <date>      <date>        <int> <chr>    <chr>       <dbl>    <dbl>   <dbl>
#>  1 2022-03-05  2022-03-12        7 piantham BA.1     0.440    0.434    0.447  
#>  2 2022-03-05  2022-03-12        7 piantham BA.2     0.180    0.174    0.187  
#>  3 2022-03-05  2022-03-12        7 piantham BA.4/5   0.00495  0.00376  0.00673
#>  4 2022-03-05  2022-03-12        7 piantham BQ.1     0.000635 0.000256 0.00150
#>  5 2022-03-05  2022-03-12        7 piantham Other    0.373    0.367    0.381  
#>  6 2022-03-05  2022-03-19       14 piantham BA.1     0.396    0.389    0.405  
#>  7 2022-03-05  2022-03-19       14 piantham BA.2     0.205    0.199    0.213  
#>  8 2022-03-05  2022-03-19       14 piantham BA.4/5   0.00640  0.00467  0.00864
#>  9 2022-03-05  2022-03-19       14 piantham BQ.1     0.000867 0.000352 0.00254
#> 10 2022-03-05  2022-03-19       14 piantham Other    0.390    0.383    0.399  
#> # ℹ 440 more rows
#> # ℹ 1 more variable: observed <dbl>
…
