…
``` r
# \donttest{
sim <- simulate_dynamics(n_lineages = 3,
  advantages = c("A" = 1.2, "B" = 0.8),
  n_timepoints = 20, seed = 1)
bt <- backtest(sim, engines = "mlr",
  horizons = c(7, 14), min_train = 42)
bt
#> 
#> ── Backtest results 
#> 75 predictions across 13 origins
#> Engines: "mlr"
#> Horizons: 7, 14 days
#> 
#> # A tibble: 75 × 9
#>    origin_date target_date horizon engine lineage predicted  lower  upper
#>  * <date>      <date>        <int> <chr>  <chr>       <dbl>  <dbl>  <dbl>
#>  1 2026-05-08  2026-05-15        7 mlr    A          0.730  0.699  0.762 
#>  2 2026-05-08  2026-05-15        7 mlr    B          0.0414 0.0324 0.0531
#>  3 2026-05-08  2026-05-15        7 mlr    ref        0.227  0.199  0.259 
#>  4 2026-05-08  2026-05-22       14 mlr    A          0.766  0.730  0.797 
#>  5 2026-05-08  2026-05-22       14 mlr    B          0.0294 0.0222 0.0391
#>  6 2026-05-08  2026-05-22       14 mlr    ref        0.205  0.174  0.240 
#>  7 2026-05-15  2026-05-22        7 mlr    A          0.777  0.748  0.802 
#>  8 2026-05-15  2026-05-22        7 mlr    B          0.0259 0.0196 0.0336
#>  9 2026-05-15  2026-05-22        7 mlr    ref        0.197  0.174  0.224 
#> 10 2026-05-15  2026-05-29       14 mlr    A          0.807  0.779  0.833 
#> # ℹ 65 more rows
#> # ℹ 1 more variable: observed <dbl>
…
