Rolling-origin backtesting of lineage frequency models — backtest • lineagefreq
…
# \donttest{
sim <- simulate_dynamics(n_lineages = 3,
  advantages = c("A" = 1.2, "B" = 0.8),
  n_timepoints = 20, seed = 1)
bt <- backtest(sim, engines = "mlr",
  horizons = c(7, 14), min_train = 42)
bt
#> 
#> ── Backtest results 
#> 75 predictions across 13 origins
#> Engines: "mlr"
#> Horizons: 7, 14 days
#> 
#> # A tibble: 75 × 9
#>    origin_date target_date horizon engine lineage predicted lower upper observed
#>  * <date>      <date>        <int> <chr>  <chr>       <dbl> <dbl> <dbl>    <dbl>
#>  1 2026-05-31  2026-06-07        7 mlr    A            0.73  0.64  0.82    0.76 
#>  2 2026-05-31  2026-06-07        7 mlr    B            0.04  0.01  0.09    0.026
#>  3 2026-05-31  2026-06-07        7 mlr    ref          0.23  0.14  0.32    0.214
#>  4 2026-05-31  2026-06-14       14 mlr    A            0.76  0.68  0.85    0.78 
#>  5 2026-05-31  2026-06-14       14 mlr    B            0.03  0     0.07    0.034
#>  6 2026-05-31  2026-06-14       14 mlr    ref          0.21  0.13  0.29    0.186
#>  7 2026-06-07  2026-06-14        7 mlr    A            0.78  0.68  0.85    0.78 
#>  8 2026-06-07  2026-06-14        7 mlr    B            0.02  0     0.06    0.034
#>  9 2026-06-07  2026-06-14        7 mlr    ref          0.2   0.12  0.29    0.186
#> 10 2026-06-07  2026-06-21       14 mlr    A            0.81  0.72  0.89    0.82 
#> # ℹ 65 more rows
…
