…
# \donttest{
sim <- simulate_dynamics(n_lineages = 3,
  advantages = c("A" = 1.2, "B" = 0.8),
  n_timepoints = 20, seed = 1)
fit <- fit_model(sim, engine = "mlr")
fc_conf <- conformal_forecast(fit, sim, horizon = 21)
fc_conf
#> 
#> ── Lineage frequency forecast 
#> Engine: mlr
#> Forecast start: 2026-08-24 | Horizon: 21 days
#> CI level: 95%
#> 60 fitted + 9 forecast rows
#> 
#> # A tibble: 69 × 6
#>    .date      .lineage .median .lower .upper .type 
#>    <date>     <chr>      <dbl>  <dbl>  <dbl> <chr> 
#>  1 2026-04-12 A          0.341  0.341  0.341 fitted
#>  2 2026-04-12 B          0.324  0.324  0.324 fitted
#>  3 2026-04-12 ref        0.335  0.335  0.335 fitted
#>  4 2026-04-19 A          0.408  0.408  0.408 fitted
#>  5 2026-04-19 B          0.257  0.257  0.257 fitted
#>  6 2026-04-19 ref        0.335  0.335  0.335 fitted
#>  7 2026-04-26 A          0.476  0.476  0.476 fitted
#>  8 2026-04-26 B          0.198  0.198  0.198 fitted
#>  9 2026-04-26 ref        0.326  0.326  0.326 fitted
#> 10 2026-05-03 A          0.541  0.541  0.541 fitted
#> # ℹ 59 more rows
…
