…
## See also

[`sequencing_power`](https://cuiweig.github.io/lineagefreq/reference/sequencing_power.md)
for static sample size calculations,
[`alert_threshold`](https://cuiweig.github.io/lineagefreq/reference/alert_threshold.md)
for sequential detection.

## Examples

``` r
dh <- detection_horizon(initial_prev = 0.005, growth_rate = 1.2,
  n_per_period = 300)
dh
#> # A tibble: 26 × 4
#>    period prevalence detection_prob detected
#>     <int>      <dbl>          <dbl> <lgl>   
#>  1      1    0.00599          0.835 FALSE   
#>  2      2    0.00718          0.981 TRUE    
#>  3      3    0.00861          0.999 TRUE    
#>  4      4    0.0103           1.000 TRUE    
#>  5      5    0.0123           1.000 TRUE    
#>  6      6    0.0148           1.000 TRUE    
#>  7      7    0.0177           1.000 TRUE    
#>  8      8    0.0212           1.000 TRUE    
#>  9      9    0.0253           1     TRUE    
#> 10     10    0.0302           1     TRUE    
#> # ℹ 16 more rows
```
