…
#> Backtesting ■■■■■■■■■■■■                      38% | ETA: 11s
#> Backtesting ■■■■■■■■■■■■■■■■                  51% | ETA: 10s
#> Backtesting ■■■■■■■■■■■■■■■■■■■■              63% | ETA:  7s
#> Backtesting ■■■■■■■■■■■■■■■■■■■■■■■           75% | ETA:  5s
#> Backtesting ■■■■■■■■■■■■■■■■■■■■■■■■■■■       86% | ETA:  3s
#> Backtesting ■■■■■■■■■■■■■■■■■■■■■■■■■■■■■■    96% | ETA:  1s
#> Backtesting ■■■■■■■■■■■■■■■■■■■■■■■■■■■■■■■  100% | ETA:  0s
bt
#> 
#> ── Backtest results
#> 900 predictions across 31 origins
#> Engines: "mlr, piantham"
#> Horizons: 7, 14, 21 days
#> 
#> # A tibble: 900 × 9
#>    origin_date target_date horizon engine lineage predicted lower  upper
#>  * <date>      <date>        <int> <chr>  <chr>       <dbl> <dbl>  <dbl>
#>  1 2022-03-05  2022-03-12        7 mlr    BA.1         0.44  0.34 0.535 
#>  2 2022-03-05  2022-03-12        7 mlr    BA.2         0.18  0.11 0.26  
#>  3 2022-03-05  2022-03-12        7 mlr    BA.4/5       0     0    0.02  
#>  4 2022-03-05  2022-03-12        7 mlr    BQ.1         0     0    0.01  
#>  5 2022-03-05  2022-03-12        7 mlr    Other        0.37  0.27 0.47  
#>  6 2022-03-05  2022-03-19       14 mlr    BA.1         0.39  0.3  0.495 
#>  7 2022-03-05  2022-03-19       14 mlr    BA.2         0.2   0.12 0.29  
#>  8 2022-03-05  2022-03-19       14 mlr    BA.4/5       0     0    0.0252
#>  9 2022-03-05  2022-03-19       14 mlr    BQ.1         0     0    0.01  
#> 10 2022-03-05  2022-03-19       14 mlr    Other        0.39  0.3  0.49  
#> # ℹ 890 more rows
#> # ℹ 1 more variable: observed <dbl>
```
…
