Comparing modeling engines • lineagefreq
…
#> Backtesting ■■■■■■■■■                         28% | ETA: 10s
#> Backtesting ■■■■■■■■■■■■■■■                   46% | ETA:  9s
#> Backtesting ■■■■■■■■■■■■■■■■■■■               60% | ETA:  7s
#> Backtesting ■■■■■■■■■■■■■■■■■■■■■■■           75% | ETA:  4s
#> Backtesting ■■■■■■■■■■■■■■■■■■■■■■■■■■■       88% | ETA:  2s
#> Backtesting ■■■■■■■■■■■■■■■■■■■■■■■■■■■■■■■   99% | ETA:  0s
#> Backtesting ■■■■■■■■■■■■■■■■■■■■■■■■■■■■■■■  100% | ETA:  0s
bt
#> 
#> ── Backtest results
#> 900 predictions across 31 origins
#> Engines: "mlr, piantham"
#> Horizons: 7, 14, 21 days
#> 
#> # A tibble: 900 × 9
#>    origin_date target_date horizon engine lineage predicted lower  upper
#>  * <date>      <date>        <int> <chr>  <chr>       <dbl> <dbl>  <dbl>
#>  1 2022-03-05  2022-03-12        7 mlr    BA.1         0.44  0.34 0.53  
#>  2 2022-03-05  2022-03-12        7 mlr    BA.2         0.18  0.11 0.26  
#>  3 2022-03-05  2022-03-12        7 mlr    BA.4/5       0     0    0.02  
#>  4 2022-03-05  2022-03-12        7 mlr    BQ.1         0     0    0.01  
#>  5 2022-03-05  2022-03-12        7 mlr    Other        0.37  0.28 0.47  
#>  6 2022-03-05  2022-03-19       14 mlr    BA.1         0.4   0.31 0.5   
#>  7 2022-03-05  2022-03-19       14 mlr    BA.2         0.21  0.13 0.29  
#>  8 2022-03-05  2022-03-19       14 mlr    BA.4/5       0     0    0.0252
#>  9 2022-03-05  2022-03-19       14 mlr    BQ.1         0     0    0.01  
#> 10 2022-03-05  2022-03-19       14 mlr    Other        0.39  0.29 0.49  
#> # ℹ 890 more rows
#> # ℹ 1 more variable: observed <dbl>
…
