Analyzing real CDC surveillance data • lineagefreq
…
vd <- lfq_data(cdc_sarscov2_jn1,
               lineage = lineage, date = date, count = count)
vd
#> 
#> ── Lineage frequency data
#> 9 lineages, 19 time points
#> Date range: 2023-10-14 to 2024-06-22
#> Lineages: "BA.2.86, HK.3, HV.1, JN.1, JN.1.11.1", ...
#> 
#> # A tibble: 171 × 7
#>    .date      .lineage  .count proportion .total   .freq .reliable
#>  * <date>     <chr>      <int>      <dbl>  <int>   <dbl> <lgl>    
#>  1 2023-10-14 BA.2.86       26    0.00320   8000 0.00325 TRUE     
#>  2 2023-10-14 HK.3         220    0.0275    8000 0.0275  TRUE     
#>  3 2023-10-14 HV.1        1401    0.175     8000 0.175   TRUE     
#>  4 2023-10-14 JN.1          10    0.00126   8000 0.00125 TRUE     
#>  5 2023-10-14 JN.1.11.1      0    0         8000 0       TRUE     
#>  6 2023-10-14 KP.2           0    0         8000 0       TRUE     
#>  7 2023-10-14 KP.3           0    0         8000 0       TRUE     
#>  8 2023-10-14 Other       6158    0.770     8000 0.770   TRUE     
#>  9 2023-10-14 XBB.1.5      185    0.0232    8000 0.0231  TRUE     
#> 10 2023-10-28 BA.2.86       63    0.00793   8000 0.00788 TRUE     
#> # ℹ 161 more rows
…
